{
  "_links": {
    "cluster_agents": "https://gitlab.kitware.com/api/v4/projects/855/cluster_agents",
    "events": "https://gitlab.kitware.com/api/v4/projects/855/events",
    "issues": "https://gitlab.kitware.com/api/v4/projects/855/issues",
    "labels": "https://gitlab.kitware.com/api/v4/projects/855/labels",
    "members": "https://gitlab.kitware.com/api/v4/projects/855/members",
    "merge_requests": "https://gitlab.kitware.com/api/v4/projects/855/merge_requests",
    "repo_branches": "https://gitlab.kitware.com/api/v4/projects/855/repository/branches",
    "self": "https://gitlab.kitware.com/api/v4/projects/855"
  },
  "allow_merge_on_skipped_pipeline": null,
  "analytics_access_level": "enabled",
  "archived": false,
  "auto_cancel_pending_pipelines": "enabled",
  "auto_devops_deploy_strategy": "continuous",
  "auto_devops_enabled": false,
  "autoclose_referenced_issues": true,
  "avatar_url": null,
  "build_git_strategy": "fetch",
  "build_timeout": 3600,
  "builds_access_level": "enabled",
  "can_create_merge_request_in": true,
  "ci_allow_fork_pipelines_to_run_in_parent_project": true,
  "ci_config_path": null,
  "ci_default_git_depth": null,
  "ci_forward_deployment_enabled": null,
  "ci_job_token_scope_enabled": true,
  "ci_opt_in_jwt": false,
  "ci_separated_caches": true,
  "container_registry_access_level": "disabled",
  "container_registry_enabled": false,
  "container_registry_image_prefix": "gitlab.kitware.com:4567/utils/rust-gitlab",
  "created_at": "2016-06-29T13:35:12.495-04:00",
  "creator_id": 13,
  "default_branch": "master",
  "description": "Rust library for communicating with a Gitlab instance.",
  "emails_disabled": false,
  "empty_repo": false,
  "enforce_auth_checks_on_uploads": true,
  "forking_access_level": "enabled",
  "forks_count": 59,
  "http_url_to_repo": "https://gitlab.kitware.com/utils/rust-gitlab.git",
  "id": 855,
  "import_error": null,
  "import_status": "none",
  "import_type": null,
  "import_url": "",
  "issues_access_level": "enabled",
  "issues_enabled": true,
  "jobs_enabled": true,
  "keep_latest_artifact": false,
  "last_activity_at": "2022-08-22T08:56:48.154-04:00",
  "lfs_enabled": false,
  "merge_commit_template": null,
  "merge_method": "merge",
  "merge_requests_access_level": "enabled",
  "merge_requests_enabled": true,
  "name": "rust-gitlab",
  "name_with_namespace": "Utils / rust-gitlab",
  "namespace": {
    "avatar_url": null,
    "full_path": "utils",
    "id": 498,
    "kind": "group",
    "name": "Utils",
    "parent_id": null,
    "path": "utils",
    "web_url": "https://gitlab.kitware.com/groups/utils"
  },
  "only_allow_merge_if_all_discussions_are_resolved": null,
  "only_allow_merge_if_pipeline_succeeds": false,
  "open_issues_count": 25,
  "operations_access_level": "enabled",
  "packages_enabled": null,
  "pages_access_level": "enabled",
  "path": "rust-gitlab",
  "path_with_namespace": "utils/rust-gitlab",
  "permissions": {
    "group_access": {
      "access_level": 50,
      "notification_level": 3
    },
    "project_access": null
  },
  "printing_merge_request_link_enabled": true,
  "public_jobs": true,
  "readme_url": "https://gitlab.kitware.com/utils/rust-gitlab/-/blob/master/README.md",
  "remove_source_branch_after_merge": null,
  "repository_access_level": "enabled",
  "repository_storage": "default",
  "request_access_enabled": false,
  "resolve_outdated_diff_discussions": null,
  "restrict_user_defined_variables": false,
  "runner_token_expiration_interval": null,
  "security_and_compliance_access_level": "private",
  "service_desk_address": "gitlab-incoming+utils-rust-gitlab-855-issue-@kitware.com",
  "service_desk_enabled": true,
  "shared_runners_enabled": true,
  "shared_with_groups": [],
  "snippets_access_level": "disabled",
  "snippets_enabled": false,
  "squash_commit_template": null,
  "squash_option": "default_off",
  "ssh_url_to_repo": "git@gitlab.kitware.com:utils/rust-gitlab.git",
  "star_count": 16,
  "suggestion_commit_message": null,
  "tag_list": [],
  "topics": [],
  "visibility": "public",
  "web_url": "https://gitlab.kitware.com/utils/rust-gitlab",
  "wiki_access_level": "enabled",
  "wiki_enabled": true
}
